<svg xmlns="http://www.w3.org/2000/svg" width="108.7" height="108.7" viewBox="0 0 108.7 108.7">
  <path id="target" d="M119.889,27.461a1.8,1.8,0,0,0-1.34-1.257l-11.051-2.5L105,12.656a1.8,1.8,0,0,0-3.034-.877L89.257,24.491a51.427,51.427,0,1,0,17.462,17.462l12.715-12.716a1.8,1.8,0,0,0,.454-1.776Zm-9.383,41.068a47.818,47.818,0,1,1-23.88-41.4l-5.837,5.837a1.789,1.789,0,0,0-.139.18A39.737,39.737,0,1,0,98.057,50.576a1.778,1.778,0,0,0,.189-.154l5.837-5.837a47.657,47.657,0,0,1,6.423,23.943ZM93.778,50.275A36.027,36.027,0,1,1,80.931,37.417l1.9,8.412-1.822,1.822a27.85,27.85,0,1,0,2.55,2.55l1.822-1.822ZM70.435,68.528a7.783,7.783,0,1,1-3.7-6.6l-5.325,5.325A1.8,1.8,0,1,0,63.956,69.8l5.325-5.325A7.694,7.694,0,0,1,70.435,68.528Zm-1.109-9.2a11.407,11.407,0,1,0,2.549,2.55L81,52.756a24.226,24.226,0,1,1-2.549-2.55ZM103.17,40.4,96.4,47.165l-1.015-.229-.039-.009-9.032-2.033L84.04,34.813l18.169-18.172,2.027,8.971a1.8,1.8,0,0,0,1.362,1.362L114.569,29Z" transform="translate(-11.261 -11.25)" fill="#0482d8"/>
</svg>
